{
  "friends": [
   {
      "name":"ITWeb",
      "focus":"Business Tech News",
      "desc":"Business technology news and information portal for South Africa's tech professionals and decision makers.",
      "type":"media",
      "logo":"https://pbs.twimg.com/profile_images/1085169286795223040/778RYe34_400x400.jpg",
      "active": 0,
      "website":"https://www.itweb.co.za/",
      "twitter":"ITWeb",
      "linkedin":"",
      "github":""
   },
   {
      "name":"Centre for Public Service Innovation",
      "focus":"Public Service Innovation",
      "desc":"The Centre for Public Service Innovation (CPSI) is mandated to develop innovative, sustainable and responsive models for improved service delivery.",
      "type":"government",
      "logo":"https://nationalgovernment.co.za/img/logos/thumb_centre_for_public_service_innovation_%28cpsi%29.png",
      "active": 1,
      "website":"https://www.cpsi.co.za/about-us/",
      "twitter":"",
      "linkedin":"",
      "github":""
   },
   {
      "name":"OpenUp South Africa",
      "focus":"Civic tech",
      "desc":"We build tools, open up data, and provide data training which supports an active citizenry and help communities and governments work better, together.",
      "type":"industry",
      "logo":"https://assets.website-files.com/5d6298cd18659ff156042e30/5ec3c772bf83b030a72bb913_openup-opengraph-image.jpg",
      "active": 1,
      "website":"https://openup.org.za/",
      "twitter":"",
      "linkedin":"",
      "github":""
   },
   {
      "name":"Policy Action Network",
      "focus":"Public Policy",
      "desc":"The Policy Action Network (PAN) helps government and civil society partners in South Africa develop and implement transformative public policies by connecting them with relevant research, data and people.",
      "type":"goverment",
      "logo":"https://policyaction.org.za/sites/default/files/PAN%20Primary%20Logo_for%20Electronic%20Use.jpg",
      "active": 1,
      "website":"https://policyaction.org.za/",
      "twitter":"",
      "linkedin":"",
      "github":""
   },
   {
      "name":"Open Data South Africa",
      "focus":"Open Datasets",
      "desc":"Open Data South Africa is encouraging wider use of government data in communities around South Africa for social impact.",
      "type":"industry",
      "logo":"https://opencitieslab.org/odd/static/dist/img/projects/project-logo_opendataza.png",
      "active": 0,
      "website":"https://opendataza.gitbook.io/toolkit/",
      "twitter":"",
      "linkedin":"",
      "github":""
   },
   {
      "name":"Sol Plaatje University",
      "focus":"IT, Data Science",
      "desc":"Get your undergraduate or postgraduate qualification from Sol Plaatje University, one of SA's youngest universities, located in Kimberley (Northern Cape).",
      "type":"acadremia",
      "logo":"https://pbs.twimg.com/profile_images/1097543887588085761/-V42zSwt_400x400.png",
      "active": 0,
      "website":"https://www.spu.ac.za/",
      "twitter":"",
      "linkedin":"",
      "github":""
   },
   {
      "name":"Northern Cape Departnement of Economic Development and Tourism",
      "focus":"Knowledge and Innovation",
      "desc":"The Northern Cape Department of Economic Development and Tourism is the department of the Government of the Northern Cape responsible for economic development and economic planning as well as promoting and developing tourism within the Northern Cape province of South Africa. ",
      "type":"government",
      "logo":"https://provincialgovernment.co.za/img/logos/thumb_7_economic_development_and_tourism.png",
      "active": 1,
      "website":"http://www.northern-cape.gov.za/dedat/index.php",
      "twitter":"",
      "linkedin":"",
      "github":""
   },
   {
      "name":"The Innovation Hub",
      "focus":"Business Tech News",
      "desc":"The Innovation Hub, the innovation agency of the Gauteng Province is a wholly owned subsidiary of the Gauteng Growth and Development Agency",
      "type":"industry",
      "logo":"http://www.govpage.co.za/uploads/2/4/0/5/24052997/the-ih_orig.png",
      "active": 0,
      "website":"https://www.theinnovationhub.com/",
      "twitter":"",
      "linkedin":"",
      "github":""
   },
   {
      "name":"SqwidNet",
      "focus":"Internet of Things",
      "desc":"SqwidNet has been in operation as the licensed Sigfox operator in South Africa since 2016. Our Internet of Things (IoT) network offers low-cost access to IoT solutions and operators in South Africa, creating opportunities for businesses small and large to create innovative solutions. ",
      "type":"industry",
      "logo":"https://www.sqwidnet.com/wp-content/uploads/2020/03/Sqwidnet-Logo-fix.svg",
      "active": 0,
      "website":"https://www.sqwidnet.com/",
      "twitter":"",
      "linkedin":"",
      "github":""
   },
   {
      "name":"PwC South Africa",
      "focus":"Audit",
      "desc":"PwC Southern Africa provides industry-focused assurance, advisory and tax services to public, private and government clients in all markets.",
      "type":"industry",
      "logo":"https://top500.co.za/wp-content/uploads/2017/03/pwc_feature_image-2.jpg",
      "active": 0,
      "website":"https://www.pwc.co.za/",
      "twitter":"",
      "linkedin":"",
      "github":""
   },
   {
      "name":"HERE Technologies",
      "focus":"Location Services",
      "desc":"Here Technologies is a Netherlands-based company that provides mapping and location data and related services to individuals and companies.",
      "type":"industry",
      "logo":"https://www.logosvgpng.com/wp-content/uploads/2018/03/here-technologies-logo-vector.png",
      "active": 0,
      "website":"https://www.here.com/",
      "twitter":"",
      "linkedin":"",
      "github":""
   },
   {
      "name":"Red Bull Basement",
      "focus":"Energy Drink",
      "desc":"Red Bull Basement empowers student innovators in all areas of study to use technology to drive positive change. ",
      "type":"industry",
      "logo":"http://alquimetricos.com/wp-content/uploads/2019/11/logo-rbs-300x234.png",
      "height":"70px",
      "active": 0,
      "website":"https://basement.redbull.com/en",
      "twitter":"",
      "linkedin":"",
      "github":""
   },
   {
      "name":"Tshwane University of Technology",
      "focus":"High Leraning",
      "desc":"Tshwane University of Technology is a higher education institution in South Africa that came into being through a merger of three technikons — Technikon Northern Gauteng, Technikon North-West and Technikon Pretoria.",
      "type":"academia",
      "logo":"https://upload.wikimedia.org/wikipedia/en/thumb/4/49/Tshwane_University_of_Technology_logo.svg/1200px-Tshwane_University_of_Technology_logo.svg.png",
      "active": 0,
      "website":"https://www.tut.ac.za/",
      "twitter":"",
      "linkedin":"",
      "github":""
   },
   {
      "name":"University of South Africa",
      "focus":"Open Source",
      "desc":"The University of South Africa, known colloquially as Unisa, is the largest university system in South Africa by enrollment. It attracts a third of all higher education students in South Africa. ",
      "type":"academia",
      "logo":"https://www.pngitem.com/pimgs/m/623-6239798_unisa-logo-university-of-south-africa-png-unisa.png",
      "active": 0,
      "website":"https://www.unisa.ac.za/sites/corporate/default",
      "twitter":"",
      "linkedin":"",
      "github":""
   },
   {
      "name":"Telkom",
      "focus":"Information Security",
      "desc":"Telkom SA SOC Limited is a South African wireline and wireless telecommunications provider, operating in more than 38 countries across the African continent.",
      "type":"industry",
      "logo":"https://stuff.co.za/wp-content/uploads/2020/03/telkom-blue-1.png",
      "active": 0,
      "website":"https://www.telkom.co.za/",
      "twitter":"",
      "linkedin":"",
      "github":""
   },
   {
      "name":"MTN South Africa",
      "focus":"Telecommunications",
      "desc":"MTN is Africa's premium telecommunications network provider offering the best Cell Phone deals, Internet Data Bundles, PayAsYouGo and Contracts.",
      "type":"industry",
      "logo":"https://n9v2j5d8.rocketcdn.me/wp-content/uploads/2020/08/mtn-1.png",
      "active": 0,
      "website":"https://www.mtn.co.za/",
      "twitter":"",
      "linkedin":"",
      "github":""
   },
   {
      "name":"IBM South Africa",
      "focus":"Cloud Technologies",
      "desc":"Capture the true value of cloud and AI for your business · Inside IBM · A faster and more reliable way to modernize and migrate to cloud",
      "type":"industry",
      "logo":"https://v2.itweb.co.za/images/stories/events/!sponsors/ibm-logo.png",
      "active": 0,
      "website":"https://www.ibm.com/za-en",
      "twitter":"",
      "linkedin":"",
      "github":""
   },
   {
      "name":"Cell C",
      "focus":"Innovation",
      "desc":"Connect your way with cellphone contracts, prepaid deals, data packages and C-Fibre (FTTH) from Cell C.",
      "type":"industry",
      "logo":"https://www.cellc.co.za/cellc/img/nav/cellc-logo.png",
      "active": 0,
      "website":"https://cellc.co.za/",
      "twitter":"",
      "linkedin":"",
      "github":""
   },
   {
      "name":"Vodacom NXT LVL",
      "focus":"Digital Skills",
      "desc":"Get online school help & affordable data bundles , NXT LVL offers life changing opportunities to become a legend .",
      "type":"industry",
      "logo":"https://www.vodacombusiness.co.za/resource-file/jtlvpqrb0v4dlxmj0z74wj/sis1927-vb-nxtlvl-logo-500x300.png",
      "active": 0,
      "website":"https://www.vodacom.co.za/vodacom/nxtlvl/nxt-lvl",
      "twitter":"",
      "linkedin":"",
      "github":""
   },
   {
      "name":"Department of Communications and Digital Technologies",
      "focus":"Communications, Tech",
      "desc":"The Department of Communications and Digital Technologies is one of the departments of the South African government. It is responsible for overseeing the South African communications, telecommunications and broadcasting industries.",
      "type":"government",
      "logo":"https://1.bp.blogspot.com/-dLpSnp5OC_k/X5aDauFR0uI/AAAAAAAADV0/H4VA9q528WsIzCoVNdK2NZenRJ0y5vKIwCLcBGAsYHQ/w1200-h630-p-k-no-nu/Dept.%2BComms%2Band%2BDigital%2BTech.jpeg",
      "active": 0,
      "website":"https://www.gov.za/about-government/contact-directory/departments/departments/communications-and-digital-technologies-department",
      "twitter":"",
      "linkedin":"",
      "github":""
   },
   {
      "name":"Limpopo Connexion",
      "focus":"Telecommunications",
      "desc":"Building a future Knowledge Society.",
      "type":"government",
      "logo":"https://media-exp1.licdn.com/dms/image/C4D0BAQGVYI2ISHBBhw/company-logo_200_200/0/1519902068157?e=2159024400&v=beta&t=9Muc_be8k-BvMO4me09-dagMkYqYX2eWgBiJo7q-0k0",
      "active": 0,
      "website":"https://twitter.com/limpopocon?lang=en",
      "twitter":"",
      "linkedin":"",
      "github":""
   },
   {
      "name":"State Information Technology Agency (SITA)",
      "focus":"ICT",
      "desc":"SITA’s role is to consolidate and coordinate the State’s information technology resources to achieve cost savings through scale, increase delivery capabilities and enhance interoperability.",
      "type":"government",
      "logo":"https://cdn.24.co.za/files/Cms/General/d/9349/251408f07bfe4c5b9642683984decbb7.jpg",
      "active": 0,
      "website":"http://www.sita.co.za",
      "twitter":"",
      "linkedin":"",
      "github":""
   },
   {
      "name":"Human Sciences Research Council of South Africa",
      "focus":"Research",
      "desc":"The Human Sciences Research Council of South Africa is Africa's largest dedicated social science and humanities research agency and policy think tank.",
      "type":"academia",
      "logo":"https://lh3.googleusercontent.com/proxy/AJpYgD08q10mjbupp9q5Dyu-Cuf7YyE7ZJSR5Ubz0jXdYi48loYMwzVmpn6JjOiacWXS3vxdv7GHfI3FEufCJ4-MecwRyVFsuA",
      "active": 0,
      "website":"http://www.hsrc.ac.za/",
      "twitter":"",
      "linkedin":"",
      "github":""
   },
   {
      "name":"Department of Public Service and Administration",
      "focus":"Public Service",
      "desc":"A professional, productive and responsive public service and administration",
      "type":"government",
      "logo":"http://www.dpsa.gov.za/images/header.png",
      "active": 0,
      "website":"http://www.dpsa.gov.za/",
      "twitter":"",
      "linkedin":"",
      "github":""
   },
   {
      "name":"National Youth Development Agency",
      "focus":"Youth",
      "desc":"The mission of the National Youth Development Agency (NYDA) is to mainstream youth issues into society and facilitate youth development with all sectors of society.",
      "type":"government",
      "logo":"https://lh3.googleusercontent.com/proxy/4K6E09fANu1Rfm8gQ8CDbRs3KguG1mv-P0hnzNS9ojQJKsQfc6PC7_CNjf-AwjkP0IEk4Yda-SxhhcvsKUsKrNJc5Dh4oed90G_72Fze8EWDeKuv2PZE2BflQz_4crO8aw",
      "active": 0,
      "website":"http://www.nyda.gov.za/",
      "twitter":"",
      "linkedin":"",
      "github":""
   },
   {
      "name":"Water Research Commission",
      "focus":"Water Research",
      "desc":"The Water Research Commission aims to contribute effectively to the best possible quality of life for the people of South Africa, by promoting water research and the application of research findings.",
      "type":"government",
      "logo":"https://www.studentroom.co.za/wp-content/uploads/2021/02/water-research-commission-wrc1.jpg",
      "active": 0,
      "website":"https://nationalgovernment.co.za/units/view/194/water-research-commission-wrc",
      "twitter":"",
      "linkedin":"",
      "github":""
   },
   {
      "name":"Victor Khanye Local Municipality",
      "focus":"People",
      "desc":"Victor Khanye Local Municipality is located in the Nkangala District Municipality of Mpumalanga province, South Africa. The seat of Delmas Local Municipality is Delmas.",
      "type":"government",
      "logo":"https://www.vklm.gov.za/templates/victor_kanye_new/images/logo.png",
      "active": 0,
      "website":"https://www.vklm.gov.za/",
      "twitter":"",
      "linkedin":"",
      "github":""
   },
   {
      "name":"City of Tshwane Metropolitan Municipality",
      "focus":"People",
      "desc":"The City of Tshwane Metropolitan Municipality is the metropolitan municipality that forms the local government of northern Gauteng Province, South Africa. The Metropolitan area is centred on the city of Pretoria with surrounding towns and localities included in the local government area.",
      "type":"government",
      "logo":"http://www.govpage.co.za/uploads/2/4/0/5/24052997/city-of-tshwane_20_orig.jpg",
      "active": 0,
      "website":"http://www.tshwane.gov.za/",
      "twitter":"",
      "linkedin":"",
      "github":""
   },
   {
      "name":"mLab Southern Africa",
      "focus":"Mobile Apps",
      "desc":"Building Africa's most vibrant tech innovation ecosystem through communities, code, lean innovation and start-up Labs.",
      "type":"industry",
      "logo":"https://mlab.co.za/wp-content/uploads/2016/07/mlab-green-2.png",
      "active": 0,
      "website":"https://mlab.co.za/",
      "twitter":"",
      "linkedin":"",
      "github":""
   },
   {
      "name":"Tshimologong Precinct",
      "focus":"Innovation",
      "desc":"The Tshimologong Precinct is a digital innovation ecosystem in Braamfontein that propels entrepreneurship and grows the skills pipeline for the digital economy",
      "type":"industry",
      "logo":"https://pbs.twimg.com/profile_images/1115691733059293189/L25DrKd8.png",
      "active": 0,
      "website":"https://tshimologong.joburg/",
      "twitter":"",
      "linkedin":"",
      "github":""
   },
   {
      "name":"Codebride Youth",
      "focus":"Youth",
      "desc":"We are a network of community spaces where social entrepreneurs, change-makers, government employees, hackers, academics, journalists, and artists can share knowledge, build tools, and solve problems together.",
      "type":"community",
      "logo":"https://assets.website-files.com/5d1dc1f4bbf6021b1557cddf/5d2c0973b9b05d0e2342e3ca_codebridge-youth-logo-horizontal-large.svg",
      "active": 0,
      "website":"https://codebridgeyouth.org.za/",
      "twitter":"",
      "linkedin":"",
      "github":""
   },
   {
      "name":"GEN Africa 22 On Sloane",
      "focus":"Innovation",
      "desc":"22 ON SLOANE is the largest startup campus in Africa. The campus offers startups and innovative SMEs a complete turnkey solution to scale, from the initial idea to commercialisation, funding opportunities and access to markets.",
      "type":"industry",
      "logo":"https://www.22onsloane.co/wp-content/uploads/2020/03/22-On-Sloane-Logo-2020.png",
      "active": 0,
      "website":"https://www.22onsloane.co/wp-content/uploads/2020/03/22-On-Sloane-Logo-2020.png",
      "twitter":"",
      "linkedin":"",
      "github":""
   },
   {
      "name":"LakeHub",
      "focus":"Incubation",
      "desc":"LakeHub academy gives you confidence you have the right tech skills to move your strategy forward.",
      "type":"international",
      "logo":"https://lakehub.co.ke/assets/images/logos/LakeHub_Incubation_(Colored-Horizontal-Transparent).png",
      "active": 0,
      "website":"https://lakehub.co.ke/",
      "twitter":"",
      "linkedin":"",
      "github":""
   },
   {
      "name":"Alliance Media Group",
      "focus":"CISO",
      "desc":"Alliance Media Group (AMG) Ltd and subsequently, the Alliances were  deliberately named to include the word ‘Alliance’ due to it’s definition from the Collins dictionary.  An Alliance stands for ‘A union formed for mutual benefit’.",
      "type":"international",
      "logo":"https://alliances.global/wp-content/uploads/2019/02/amglogo.png",
      "active": 0,
      "website":"https://www.alliances.global/",
      "twitter":"",
      "linkedin":"",
      "github":""
   },
   {
      "name":"Lepsta",
      "focus":"Collaboration Tools",
      "desc":"Lepsta is a version control and code syncing service that helps developers spend more time coding and less time managing code by automating their code management workflow.",
      "type":"industry",
      "logo":"https://lepsta.tech/static/landing/static/logo.svg",
      "active": 1,
      "website":"https://lepsta.tech/",
      "twitter":"",
      "linkedin":"",
      "github":""
   },
   {
      "name":"Moringa School",
      "focus":"Software",
      "desc":"Moringa School is a multi-disciplinary learning-accelerator committed to closing the skills gap in Africa’s job market by providing transformative tech-based learning. Our curriculum is industry specific and blends technical education with life skill development and practical experience.",
      "type":"international",
      "logo":"https://moringaschool.com/sites/default/files/Moringa%20School%20Logo.png",
      "active": 0,
      "website":"https://moringaschool.com",
      "twitter":"",
      "linkedin":"",
      "github":""
   },
   {
      "name":"Open Data Institute",
      "focus":"Open Data",
      "desc":"The Open Data Institute is a non-profit private company limited by guarantee, based in the United Kingdom. Founded by Sirs Tim Berners-Lee and Nigel Shadbolt in 2012, the ODI’s mission is to connect, equip and inspire people around the world to innovate with data.",
      "type":"international",
      "logo":"https://theodi.org/wp-content/themes/theodi/images/ODI-default-image-logo.jpg",
      "active": 0,
      "website":"https://theodi.org/",
      "twitter":"",
      "linkedin":"",
      "github":""
   },
   {
      "name":"British High Commission Pretoria",
      "focus":"Government",
      "desc":"British High Commission Pretoria ... The British High Commission in South Africa maintains and develops relations between the UK and South Africa.",
      "type":"deplomatic",
      "logo":"https://pbs.twimg.com/profile_images/1326802038785794048/ajMYRpnO.jpg",
      "height":"70px",
      "active": 0,
      "website":"https://www.gov.uk/world/organisations/british-high-commission-pretoria",
      "twitter":"",
      "linkedin":"",
      "github":""
   },
   {
      "name":"",
      "focus":"",
      "desc":"",
      "type":"",
      "logo":"",
      "active": 0,
      "website":"",
      "twitter":"",
      "linkedin":"",
      "github":""
   },
   {
      "name":"",
      "focus":"",
      "desc":"",
      "type":"",
      "logo":"",
      "active": 0,
      "website":"",
      "twitter":"",
      "linkedin":"",
      "github":""
   },
   {
      "name":"",
      "focus":"",
      "desc":"",
      "type":"",
      "logo":"",
      "active": 0,
      "website":"",
      "twitter":"",
      "linkedin":"",
      "github":""
   },
   {
      "name":"",
      "focus":"",
      "desc":"",
      "type":"",
      "logo":"",
      "active": 0,
      "website":"",
      "twitter":"",
      "linkedin":"",
      "github":""
   },
   {
      "name":"",
      "focus":"",
      "desc":"",
      "type":"",
      "logo":"",
      "active": 0,
      "website":"",
      "twitter":"",
      "linkedin":"",
      "github":""
   },
   {
      "name":"",
      "focus":"",
      "desc":"",
      "type":"",
      "logo":"",
      "active": 0,
      "website":"",
      "twitter":"",
      "linkedin":"",
      "github":""
   },
   {
      "name":"",
      "focus":"",
      "desc":"",
      "type":"",
      "logo":"",
      "active": 0,
      "website":"",
      "twitter":"",
      "linkedin":"",
      "github":""
   },
   {
      "name":"",
      "focus":"",
      "desc":"",
      "type":"",
      "logo":"",
      "active": 0,
      "website":"",
      "twitter":"",
      "linkedin":"",
      "github":""
   },
   {
      "name":"",
      "focus":"",
      "desc":"",
      "type":"",
      "logo":"",
      "active": 0,
      "website":"",
      "twitter":"",
      "linkedin":"",
      "github":""
   },
   {
      "name":"",
      "focus":"",
      "desc":"",
      "type":"",
      "logo":"",
      "active": 0,
      "website":"",
      "twitter":"",
      "linkedin":"",
      "github":""
   },
   {
      "name":"",
      "focus":"",
      "desc":"",
      "type":"",
      "logo":"",
      "active": 0,
      "website":"",
      "twitter":"",
      "linkedin":"",
      "github":""
   },
   {
      "name":"",
      "focus":"",
      "desc":"",
      "type":"",
      "logo":"",
      "active": 0,
      "website":"",
      "twitter":"",
      "linkedin":"",
      "github":""
   },
   {
      "name":"",
      "focus":"",
      "desc":"",
      "type":"",
      "logo":"",
      "active": 0,
      "website":"",
      "twitter":"",
      "linkedin":"",
      "github":""
   },
   {
      "name":"",
      "focus":"",
      "desc":"",
      "type":"",
      "logo":"",
      "active": 0,
      "website":"",
      "twitter":"",
      "linkedin":"",
      "github":""
   },
   {
      "name":"",
      "focus":"",
      "desc":"",
      "type":"",
      "logo":"",
      "active": 0,
      "website":"",
      "twitter":"",
      "linkedin":"",
      "github":""
   },
   {
      "name":"",
      "focus":"",
      "desc":"",
      "type":"",
      "logo":"",
      "active": 0,
      "website":"",
      "twitter":"",
      "linkedin":"",
      "github":""
   },
   {
      "name":"",
      "focus":"",
      "desc":"",
      "type":"",
      "logo":"",
      "active": 0,
      "website":"",
      "twitter":"",
      "linkedin":"",
      "github":""
   },
   {
      "name":"",
      "focus":"",
      "desc":"",
      "type":"",
      "logo":"",
      "active": 0,
      "website":"",
      "twitter":"",
      "linkedin":"",
      "github":""
   },
   {
      "name":"",
      "focus":"",
      "desc":"",
      "type":"",
      "logo":"",
      "active": 0,
      "website":"",
      "twitter":"",
      "linkedin":"",
      "github":""
   },
   {
      "name":"",
      "focus":"",
      "desc":"",
      "type":"",
      "logo":"",
      "active": 0,
      "website":"",
      "twitter":"",
      "linkedin":"",
      "github":""
   },
   {
      "name":"",
      "focus":"",
      "desc":"",
      "type":"",
      "logo":"",
      "active": 0,
      "website":"",
      "twitter":"",
      "linkedin":"",
      "github":""
   },
   {
      "name":"",
      "focus":"",
      "desc":"",
      "type":"",
      "logo":"",
      "active": 0,
      "website":"",
      "twitter":"",
      "linkedin":"",
      "github":""
   },
   {
      "name":"",
      "focus":"",
      "desc":"",
      "type":"",
      "logo":"",
      "active": 0,
      "website":"",
      "twitter":"",
      "linkedin":"",
      "github":""
   },
   {
      "name":"",
      "focus":"",
      "desc":"",
      "type":"",
      "logo":"",
      "active": 0,
      "website":"",
      "twitter":"",
      "linkedin":"",
      "github":""
   },
   {
      "name":"",
      "focus":"",
      "desc":"",
      "type":"",
      "logo":"",
      "active": 0,
      "website":"",
      "twitter":"",
      "linkedin":"",
      "github":""
   },
   {
      "name":"",
      "focus":"",
      "desc":"",
      "type":"",
      "logo":"",
      "active": 0,
      "website":"",
      "twitter":"",
      "linkedin":"",
      "github":""
   },
   {
      "name":"",
      "focus":"",
      "desc":"",
      "type":"",
      "logo":"",
      "active": 0,
      "website":"",
      "twitter":"",
      "linkedin":"",
      "github":""
   },
   {
      "name":"",
      "focus":"",
      "desc":"",
      "type":"",
      "logo":"",
      "active": 0,
      "website":"",
      "twitter":"",
      "linkedin":"",
      "github":""
   },
   {
      "name":"",
      "focus":"",
      "desc":"",
      "type":"",
      "logo":"",
      "active": 0,
      "website":"",
      "twitter":"",
      "linkedin":"",
      "github":""
   },
   {
      "name":"",
      "focus":"",
      "desc":"",
      "type":"",
      "logo":"",
      "active": 0,
      "website":"",
      "twitter":"",
      "linkedin":"",
      "github":""
   },
   {
      "name":"",
      "focus":"",
      "desc":"",
      "type":"",
      "logo":"",
      "active": 0,
      "website":"",
      "twitter":"",
      "linkedin":"",
      "github":""
   },
   {
      "name":"",
      "focus":"",
      "desc":"",
      "type":"",
      "logo":"",
      "active": 0,
      "website":"",
      "twitter":"",
      "linkedin":"",
      "github":""
   },
   {
      "name":"",
      "focus":"",
      "desc":"",
      "type":"",
      "logo":"",
      "active": 0,
      "website":"",
      "twitter":"",
      "linkedin":"",
      "github":""
   },
   {
      "name":"",
      "focus":"",
      "desc":"",
      "type":"",
      "logo":"",
      "active": 0,
      "website":"",
      "twitter":"",
      "linkedin":"",
      "github":""
   },
   {
      "name":"",
      "focus":"",
      "desc":"",
      "type":"",
      "logo":"",
      "active": 0,
      "website":"",
      "twitter":"",
      "linkedin":"",
      "github":""
   },
   {
      "name":"",
      "focus":"",
      "desc":"",
      "type":"",
      "logo":"",
      "active": 0,
      "website":"",
      "twitter":"",
      "linkedin":"",
      "github":""
   },
   {
      "name":"",
      "focus":"",
      "desc":"",
      "type":"",
      "logo":"",
      "active": 0,
      "website":"",
      "twitter":"",
      "linkedin":"",
      "github":""
   },
   {
      "name":"",
      "focus":"",
      "desc":"",
      "type":"",
      "logo":"",
      "active": 0,
      "website":"",
      "twitter":"",
      "linkedin":"",
      "github":""
   },
   {
      "name":"",
      "focus":"",
      "desc":"",
      "type":"",
      "logo":"",
      "active": 0,
      "website":"",
      "twitter":"",
      "linkedin":"",
      "github":""
   },
   {
      "name":"",
      "focus":"",
      "desc":"",
      "type":"",
      "logo":"",
      "active": 0,
      "website":"",
      "twitter":"",
      "linkedin":"",
      "github":""
   },
   {
      "name":"",
      "focus":"",
      "desc":"",
      "type":"",
      "logo":"",
      "active": 0,
      "website":"",
      "twitter":"",
      "linkedin":"",
      "github":""
   },
   {
      "name":"",
      "focus":"",
      "desc":"",
      "type":"",
      "logo":"",
      "active": 0,
      "website":"",
      "twitter":"",
      "linkedin":"",
      "github":""
   },
   {
      "name":"",
      "focus":"",
      "desc":"",
      "type":"",
      "logo":"",
      "active": 0,
      "website":"",
      "twitter":"",
      "linkedin":"",
      "github":""
   },
   {
      "name":"",
      "focus":"",
      "desc":"",
      "type":"",
      "logo":"",
      "active": 0,
      "website":"",
      "twitter":"",
      "linkedin":"",
      "github":""
   },
   {
      "name":"",
      "focus":"",
      "desc":"",
      "type":"",
      "logo":"",
      "active": 0,
      "website":"",
      "twitter":"",
      "linkedin":"",
      "github":""
   },
   {
      "name":"",
      "focus":"",
      "desc":"",
      "type":"",
      "logo":"",
      "active": 0,
      "website":"",
      "twitter":"",
      "linkedin":"",
      "github":""
   },
   {
      "name":"",
      "focus":"",
      "desc":"",
      "type":"",
      "logo":"",
      "active": 0,
      "website":"",
      "twitter":"",
      "linkedin":"",
      "github":""
   },
   {
      "name":"",
      "focus":"",
      "desc":"",
      "type":"",
      "logo":"",
      "active": 0,
      "website":"",
      "twitter":"",
      "linkedin":"",
      "github":""
   },
   {
      "name":"",
      "focus":"",
      "desc":"",
      "type":"",
      "logo":"",
      "active": 0,
      "website":"",
      "twitter":"",
      "linkedin":"",
      "github":""
   },
   {
      "name":"",
      "focus":"",
      "desc":"",
      "type":"",
      "logo":"",
      "active": 0,
      "website":"",
      "twitter":"",
      "linkedin":"",
      "github":""
   },
   {
      "name":"",
      "focus":"",
      "desc":"",
      "type":"",
      "logo":"",
      "active": 0,
      "website":"",
      "twitter":"",
      "linkedin":"",
      "github":""
   },
   {
      "name":"",
      "focus":"",
      "desc":"",
      "type":"",
      "logo":"",
      "active": 0,
      "website":"",
      "twitter":"",
      "linkedin":"",
      "github":""
   },
   {
      "name":"",
      "focus":"",
      "desc":"",
      "type":"",
      "logo":"",
      "active": 0,
      "website":"",
      "twitter":"",
      "linkedin":"",
      "github":""
   },
   {
      "name":"",
      "focus":"",
      "desc":"",
      "type":"",
      "logo":"",
      "active": 0,
      "website":"",
      "twitter":"",
      "linkedin":"",
      "github":""
   },
   {
      "name":"",
      "focus":"",
      "desc":"",
      "type":"",
      "logo":"",
      "active": 0,
      "website":"",
      "twitter":"",
      "linkedin":"",
      "github":""
   }
     ]
     }
